[gd_scene load_steps=2 format=3 uid="uid://xiw375i1si1l"]

[ext_resource type="Script" path="res://HUD.gd" id="1_pvwb3"]

[node name="HUD" type="CanvasLayer"]
script = ExtResource("1_pvwb3")

[node name="ScoreLabel" type="Label" parent="."]
anchors_preset = 1
anchor_left = 1.0
anchor_right = 1.0
offset_left = -299.0
offset_right = -238.0
offset_bottom = 26.0
grow_horizontal = 0
scale = Vector2(2.98726, 3)
size_flags_vertical = 0
text = "Score: 0"

[node name="HPLabel" type="Label" parent="."]
offset_right = 67.0
offset_bottom = 26.0
scale = Vector2(3, 3.046)
text = "HP: 9999
"

[node name="RestartButton" type="Button" parent="."]
anchors_preset = 8
anchor_left = 0.5
anchor_top = 0.5
anchor_right = 0.5
anchor_bottom = 0.5
offset_left = -54.5
offset_top = -47.0
offset_right = 54.5
offset_bottom = -16.0
grow_horizontal = 2
grow_vertical = 2
text = "Restart Level"

[node name="MenuButton" type="Button" parent="."]
anchors_preset = 8
anchor_left = 0.5
anchor_top = 0.5
anchor_right = 0.5
anchor_bottom = 0.5
offset_left = -4.0
offset_top = 8.0
offset_right = 4.0
offset_bottom = 16.0
grow_horizontal = 2
grow_vertical = 2
text = "Return to Menu"

[connection signal="pressed" from="RestartButton" to="." method="_on_restart_button_pressed"]
[connection signal="pressed" from="MenuButton" to="." method="_on_menu_button_pressed"]
