[gd_scene load_steps=4 format=3 uid="uid://de85vy6556a5t"]

[ext_resource type="Texture2D" uid="uid://cuykq0jqklvx6" path="res://art/square.png" id="1_fxeus"]
[ext_resource type="Script" path="res://platform.gd" id="1_l4en2"]

[sub_resource type="RectangleShape2D" id="RectangleShape2D_ah35l"]
size = Vector2(24, 24)

[node name="Platform" type="RigidBody2D"]
collision_layer = 2
collision_mask = 4
freeze = true
freeze_mode = 1
script = ExtResource("1_l4en2")

[node name="Sprite2D" type="Sprite2D" parent="."]
position = Vector2(0, -2.30968e-07)
scale = Vector2(2, 0.521739)
texture = ExtResource("1_fxeus")

[node name="CollisionShape2D" type="CollisionShape2D" parent="."]
scale = Vector2(2, 0.5)
shape = SubResource("RectangleShape2D_ah35l")
